<?xml version="1.0" standalone="no"?>
<!DOCTYPE svg PUBLIC "-//W3C//DTD SVG 20010904//EN"
 "http://www.w3.org/TR/2001/REC-SVG-20010904/DTD/svg10.dtd">
<svg version="1.0" xmlns="http://www.w3.org/2000/svg"
 width="2047.000000pt" height="2047.000000pt" viewBox="0 0 2047.000000 2047.000000"
 preserveAspectRatio="xMidYMid meet">
<metadata>
Created by potrace 1.14, written by Peter Selinger 2001-2017
</metadata>
<g transform="translate(0.000000,2047.000000) scale(0.100000,-0.100000)"
fill="#000000" stroke="none">
<path d="M11028 20466 c-1 -2 -32 -6 -68 -10 -69 -6 -114 -13 -142 -22 -10 -3
-30 -7 -45 -10 -44 -8 -102 -23 -188 -50 -90 -29 -82 -25 -228 -93 -446 -207
-806 -593 -990 -1061 -29 -73 -73 -219 -80 -267 -3 -18 -8 -36 -11 -41 -3 -4
-8 -35 -11 -68 -4 -32 -8 -61 -10 -65 -6 -9 -19 -208 -19 -284 1 -144 25 -331
60 -460 9 -33 17 -65 18 -72 1 -7 5 -16 9 -19 4 -4 7 -15 7 -25 0 -27 86 -234
137 -328 94 -176 209 -328 358 -477 318 -314 756 -516 1195 -551 143 -11 382
-5 460 12 14 3 43 8 65 11 200 28 516 152 710 279 34 23 27 18 120 87 243 182
436 415 575 696 52 105 112 257 124 315 3 12 12 47 20 77 8 30 17 69 20 85 3
17 8 39 10 51 23 115 36 408 23 509 -3 22 -9 65 -12 95 -4 30 -11 71 -15 90
-5 19 -12 53 -16 74 -3 22 -10 50 -15 63 -5 13 -7 23 -5 23 2 0 -12 44 -31 98
-19 53 -37 106 -41 117 -13 45 -118 246 -169 325 -144 222 -333 417 -544 560
-209 143 -522 274 -732 306 -23 3 -80 12 -125 19 -72 10 -404 19 -414 11z"/>
<path d="M9055 18161 c-6 -4 -226 -118 -490 -251 -264 -133 -628 -318 -810
-410 -181 -92 -496 -252 -700 -355 -388 -197 -1139 -577 -1630 -826 -159 -81
-483 -245 -720 -365 -236 -119 -524 -265 -640 -324 -115 -59 -292 -149 -393
-199 l-183 -92 55 -60 c243 -263 444 -653 512 -994 10 -49 20 -93 23 -97 6 -7
57 18 781 384 239 121 604 306 810 411 206 104 528 267 715 362 187 95 507
257 710 360 204 103 523 265 710 360 187 95 547 277 800 405 427 216 964 489
1027 523 l28 14 -53 59 c-148 166 -239 301 -345 509 -63 124 -147 370 -172
510 -14 76 -21 90 -35 76z"/>
<path d="M13089 17499 c-8 -13 -19 -33 -26 -44 -7 -11 -16 -29 -21 -40 -9 -19
-112 -172 -139 -205 -196 -248 -417 -439 -662 -573 l-64 -35 1020 -1024 c562
-563 1556 -1560 2210 -2217 l1189 -1194 28 54 c107 203 327 464 531 628 85 69
242 174 313 210 24 12 42 26 40 32 -2 5 -660 669 -1463 1475 -803 806 -1794
1801 -2202 2211 -721 725 -741 745 -754 722z"/>
<path d="M1788 15785 c-2 -1 -28 -6 -58 -9 -50 -6 -121 -17 -190 -30 -217 -41
-526 -178 -720 -320 -207 -151 -392 -348 -527 -561 -89 -141 -200 -397 -227
-525 -3 -14 -12 -52 -20 -85 -9 -32 -18 -82 -22 -109 -3 -28 -9 -72 -13 -98
-13 -77 -9 -364 5 -473 37 -283 142 -568 298 -810 110 -171 283 -358 446 -483
74 -56 69 -53 120 -86 25 -16 56 -37 70 -46 44 -30 273 -137 350 -165 79 -28
238 -70 304 -81 21 -3 48 -8 60 -10 54 -11 204 -19 331 -18 424 4 850 157
1192 430 32 26 105 94 163 153 295 298 464 632 544 1076 10 50 20 215 20 305
-1 392 -110 748 -331 1083 -35 53 -69 97 -74 97 -5 0 -9 6 -9 13 0 24 -191
223 -300 312 -230 188 -556 347 -820 399 -14 3 -34 7 -45 9 -11 3 -39 8 -63
12 -23 4 -54 9 -70 11 -30 6 -409 14 -414 9z"/>
<path d="M10309 15716 c-3 -3 -20 -8 -39 -11 -55 -9 -171 -71 -221 -118 -65
-60 -98 -107 -164 -232 -32 -60 -70 -132 -85 -160 -15 -27 -49 -90 -75 -140
-45 -85 -80 -150 -165 -310 -52 -97 -109 -204 -165 -310 -73 -137 -96 -179
-103 -187 -7 -6 -31 -11 -127 -24 -27 -3 -59 -8 -70 -10 -11 -3 -36 -7 -55
-10 -31 -4 -313 -66 -362 -78 -120 -31 -370 -112 -475 -154 l-51 -21 -41 29
c-22 17 -42 30 -44 30 -1 0 -154 100 -340 223 -594 392 -721 474 -773 500
-105 53 -271 66 -378 31 -28 -10 -53 -17 -56 -17 -14 0 -279 -183 -300 -206
-3 -3 -41 -33 -84 -66 -43 -33 -84 -64 -90 -70 -6 -5 -58 -50 -115 -100 -114
-98 -114 -97 -257 -236 -232 -225 -360 -371 -617 -699 -37 -46 -79 -120 -99
-169 -18 -46 -22 -77 -22 -176 -1 -157 10 -184 172 -444 71 -113 157 -251 191
-306 35 -55 145 -232 246 -393 l183 -293 -18 -47 c-10 -26 -27 -68 -38 -94
-12 -27 -19 -48 -15 -48 3 0 1 -6 -4 -12 -22 -28 -151 -450 -177 -578 -28
-140 -45 -232 -50 -265 -3 -22 -8 -51 -11 -65 -5 -22 -85 -65 -623 -334 -339
-170 -636 -322 -659 -338 -92 -62 -163 -156 -204 -268 -35 -95 -33 -201 7
-495 25 -184 44 -298 75 -436 11 -52 22 -102 24 -112 2 -10 7 -27 10 -37 3
-10 8 -27 10 -38 6 -34 54 -213 77 -287 12 -38 22 -74 24 -80 16 -72 175 -493
232 -616 77 -164 226 -279 397 -305 58 -8 101 -8 330 0 94 4 229 9 300 11 72
2 189 7 260 9 72 3 214 8 316 11 102 4 199 8 215 10 32 3 21 14 182 -180 192
-230 346 -386 552 -559 109 -91 132 -115 125 -125 -2 -4 -6 -61 -10 -126 -4
-66 -8 -145 -10 -175 -2 -30 -6 -107 -10 -170 -3 -63 -8 -140 -10 -170 -3 -30
-7 -109 -10 -175 -4 -66 -8 -142 -10 -170 -7 -118 -18 -305 -20 -360 -7 -202
109 -400 287 -487 226 -112 597 -253 871 -333 87 -25 277 -74 315 -81 12 -3
59 -13 105 -24 45 -10 96 -22 112 -25 17 -2 41 -7 55 -9 91 -17 275 -46 325
-52 33 -3 69 -8 80 -11 41 -8 172 -2 220 11 112 30 210 95 280 186 24 30 156
269 295 530 139 261 273 513 298 560 74 140 94 175 100 181 4 4 30 10 57 13
105 12 144 19 285 47 80 16 152 31 160 33 8 2 29 7 45 11 88 21 316 90 416
126 194 70 170 67 236 23 32 -21 65 -43 74 -49 9 -5 29 -19 45 -30 16 -10 99
-65 184 -120 143 -94 532 -350 709 -467 150 -99 232 -126 372 -123 124 4 182
24 299 104 73 50 262 191 270 201 3 3 23 19 45 35 22 17 42 32 45 35 3 3 32
27 65 55 174 145 422 387 616 601 69 76 196 231 255 310 32 43 66 87 76 97 28
32 76 130 90 187 32 122 19 249 -35 361 -18 36 -112 193 -210 350 -98 156
-183 291 -188 299 -17 28 -126 203 -238 382 l-111 177 51 128 c28 70 52 133
53 138 2 6 6 17 9 25 18 43 82 262 112 380 40 161 42 172 75 354 11 60 21 110
22 111 2 1 273 136 603 300 330 164 624 314 654 332 150 95 238 249 245 430 3
85 -11 241 -39 423 -2 14 -7 45 -10 70 -4 25 -16 90 -27 145 -11 55 -22 114
-25 130 -2 17 -14 66 -25 110 -11 44 -22 89 -24 100 -35 186 -225 744 -331
973 -70 151 -206 263 -365 299 -54 12 -282 9 -885 -12 -62 -2 -201 -6 -310
-10 -109 -3 -218 -8 -242 -11 -50 -5 -38 -16 -203 186 -56 69 -181 204 -278
300 -188 187 -192 191 -315 292 -73 60 -80 69 -79 100 2 18 5 76 9 128 3 52 8
133 10 180 2 47 7 121 10 165 6 87 11 171 20 340 3 61 8 135 10 165 30 423 24
497 -46 631 -74 138 -186 210 -564 361 -272 109 -756 255 -965 292 -14 2 -36
7 -50 10 -28 6 -48 10 -165 31 -79 14 -103 17 -200 30 -27 4 -61 9 -75 11 -36
7 -236 15 -241 10z m-279 -4050 c14 -3 41 -8 60 -10 19 -3 60 -10 90 -16 30
-6 66 -14 79 -16 13 -3 76 -22 140 -44 402 -135 743 -403 978 -770 133 -208
237 -500 271 -765 9 -69 9 -356 -1 -438 -40 -360 -221 -753 -471 -1026 -291
-317 -706 -535 -1116 -585 -112 -14 -141 -16 -240 -16 -298 1 -554 59 -815
185 -91 44 -276 154 -295 175 -3 3 -34 29 -70 57 -36 28 -106 94 -156 145
-277 285 -454 653 -508 1053 -14 97 -14 403 -2 470 3 17 8 44 11 60 8 47 26
129 44 201 13 50 56 172 83 234 179 410 491 735 893 931 103 50 295 121 360
133 11 2 55 11 98 20 42 9 110 19 150 22 39 4 73 8 75 9 6 6 316 -3 342 -9z"/>
<path d="M18428 13135 c-2 -1 -43 -5 -93 -9 -103 -7 -115 -9 -248 -37 -193
-40 -446 -142 -622 -250 -164 -102 -375 -291 -496 -444 -191 -243 -321 -520
-383 -815 -45 -211 -53 -500 -21 -695 35 -210 114 -458 187 -590 137 -245 221
-358 383 -519 149 -146 307 -258 505 -357 135 -67 314 -130 440 -155 14 -3 43
-9 65 -14 22 -5 72 -12 110 -15 39 -4 79 -9 90 -11 24 -5 286 -4 335 1 120 12
252 37 355 66 378 108 736 341 973 634 31 39 59 72 62 75 6 5 96 139 115 171
22 37 122 235 128 254 3 11 18 52 32 90 82 217 115 431 110 700 -2 105 -6 201
-9 215 -2 14 -7 45 -11 70 -36 244 -169 575 -311 773 -19 26 -34 51 -34 56 0
5 -3 11 -7 13 -5 2 -34 35 -65 73 -326 402 -803 658 -1323 710 -64 6 -263 14
-267 10z"/>
<path d="M2830 11869 c-78 -36 -291 -110 -350 -123 -14 -3 -56 -13 -95 -21
-174 -39 -482 -53 -677 -31 l-77 8 4 -23 c3 -13 7 -44 11 -69 3 -25 9 -70 14
-100 5 -30 12 -71 15 -90 3 -19 7 -46 10 -60 2 -14 7 -45 10 -70 3 -25 13 -85
21 -135 17 -104 21 -125 29 -180 3 -23 7 -50 9 -62 3 -12 8 -43 12 -70 3 -26
8 -57 10 -68 3 -17 11 -67 19 -120 2 -11 10 -67 20 -125 9 -58 18 -118 19
-135 2 -16 6 -41 10 -55 3 -14 8 -43 11 -65 3 -22 10 -67 15 -100 17 -109 20
-130 24 -160 6 -38 14 -89 31 -195 8 -47 17 -103 20 -125 3 -23 7 -50 9 -60 2
-11 11 -69 20 -130 10 -60 19 -121 22 -135 2 -14 11 -70 19 -125 8 -55 17
-111 20 -125 3 -14 7 -45 10 -70 3 -25 8 -56 11 -70 3 -13 7 -40 10 -60 5 -42
12 -86 19 -120 2 -13 7 -42 10 -65 3 -22 17 -112 31 -200 33 -211 34 -216 39
-245 2 -14 7 -43 10 -65 3 -23 7 -50 9 -60 2 -11 7 -42 10 -68 4 -27 9 -58 12
-70 2 -12 6 -39 9 -62 3 -22 8 -51 10 -65 3 -14 7 -41 10 -60 3 -19 8 -46 10
-60 3 -14 7 -41 9 -60 5 -32 11 -78 21 -140 3 -14 7 -43 10 -65 4 -22 9 -53
11 -70 3 -16 7 -46 10 -65 2 -19 8 -60 14 -90 5 -30 11 -71 14 -90 3 -19 8
-48 11 -65 8 -49 14 -88 20 -130 3 -22 10 -62 15 -90 5 -27 12 -70 15 -95 3
-25 7 -56 10 -70 2 -14 6 -41 9 -60 2 -19 11 -75 20 -125 8 -49 17 -108 20
-130 4 -22 8 -51 11 -65 2 -14 7 -43 10 -65 6 -41 9 -58 25 -155 5 -30 12 -75
15 -100 7 -51 12 -81 25 -160 11 -64 19 -119 26 -175 3 -22 10 -58 15 -80 5
-22 9 -55 9 -72 0 -18 4 -33 9 -33 5 0 43 16 84 35 153 69 399 142 538 160 30
4 56 8 59 10 3 2 48 6 100 10 156 13 311 9 458 -11 23 -4 42 -2 42 2 0 5 -4
36 -10 69 -5 33 -12 78 -15 100 -4 22 -8 51 -10 65 -2 14 -11 72 -20 130 -9
58 -18 116 -21 130 -2 14 -9 57 -14 95 -6 39 -15 95 -20 125 -5 30 -12 71 -14
90 -5 40 -22 145 -41 258 -2 15 -16 104 -30 197 -14 94 -27 177 -30 185 -2 8
-6 38 -10 65 -3 28 -7 61 -10 75 -3 14 -7 41 -10 60 -3 19 -10 60 -15 90 -5
30 -12 75 -15 100 -3 25 -10 68 -15 95 -9 47 -17 99 -26 170 -2 17 -6 41 -9
55 -5 27 -10 60 -20 125 -3 23 -7 50 -9 60 -2 11 -6 38 -10 60 -3 22 -15 96
-26 165 -11 69 -22 143 -25 165 -7 41 -7 47 -24 155 -6 36 -13 83 -16 105 -3
22 -8 51 -10 65 -3 14 -7 43 -11 65 -3 22 -14 96 -25 165 -20 121 -23 141 -33
205 -14 95 -19 121 -21 135 -1 8 -5 33 -9 55 -3 22 -15 96 -26 165 -11 69 -22
143 -25 165 -4 22 -8 51 -10 65 -28 173 -45 283 -50 320 -3 25 -10 68 -15 95
-5 28 -12 67 -15 88 -7 48 -15 105 -20 137 -3 14 -7 43 -10 65 -4 22 -8 51
-10 65 -4 21 -14 91 -30 190 -2 14 -13 81 -24 150 -11 69 -22 141 -25 160 -9
61 -17 114 -21 140 -6 34 -25 157 -31 200 -3 19 -17 104 -30 189 -14 85 -27
172 -30 195 -3 23 -9 55 -12 72 l-7 31 -85 -38z"/>
<path d="M16900 9478 c-121 -238 -435 -851 -590 -1153 -166 -324 -303 -591
-420 -820 -62 -121 -155 -303 -207 -405 -53 -102 -147 -286 -210 -410 -64
-124 -155 -301 -203 -395 -48 -93 -149 -291 -225 -440 -76 -148 -168 -328
-205 -400 -37 -71 -127 -247 -200 -390 -146 -287 -289 -565 -416 -812 -46 -89
-84 -164 -84 -166 0 -4 56 -17 75 -18 25 -1 282 -78 330 -98 11 -5 49 -21 85
-36 208 -87 406 -216 622 -405 l46 -41 62 123 c61 119 152 299 365 713 56 110
149 290 205 400 56 110 144 281 195 380 89 173 189 369 440 860 65 127 161
316 215 420 101 198 232 453 415 810 59 116 151 296 205 400 54 105 150 294
215 420 65 127 153 298 195 380 206 399 330 645 330 652 0 5 -37 17 -82 27
-46 9 -91 19 -101 21 -57 12 -277 94 -366 136 -207 98 -462 272 -564 387 -12
12 -26 22 -32 22 -7 0 -49 -73 -95 -162z"/>
<path d="M3325 5549 c-46 -8 -183 -32 -195 -34 -3 -1 -14 -4 -25 -8 -11 -3
-31 -8 -45 -11 -37 -6 -193 -57 -205 -66 -5 -4 -21 -11 -35 -15 -123 -38 -372
-187 -523 -313 -78 -65 -239 -235 -304 -322 -89 -119 -131 -187 -194 -320 -28
-58 -57 -118 -65 -133 -8 -16 -14 -37 -14 -46 0 -10 -3 -21 -7 -25 -5 -4 -8
-11 -9 -14 0 -4 -3 -14 -7 -22 -24 -62 -59 -206 -73 -300 -3 -19 -7 -46 -10
-60 -6 -35 -17 -215 -17 -275 1 -58 11 -210 17 -242 3 -11 8 -43 11 -70 4 -26
20 -99 36 -162 88 -341 262 -644 516 -897 317 -315 710 -504 1168 -560 114
-14 477 -7 504 10 4 3 25 7 47 10 90 11 328 78 391 111 15 8 32 15 36 15 22 0
223 108 312 168 445 296 753 759 846 1272 49 266 42 576 -18 805 -8 33 -17 67
-18 75 -2 8 -4 15 -5 15 -1 0 -3 7 -5 15 -31 157 -200 493 -320 638 -8 9 -28
35 -45 57 -74 96 -330 335 -359 335 -5 0 -11 4 -13 9 -5 15 -152 106 -255 159
-151 77 -375 154 -514 177 -19 3 -45 7 -59 10 -76 14 -123 17 -300 20 -107 1
-217 -2 -245 -6z"/>
<path d="M5688 3915 c-2 -3 -1 -33 4 -68 18 -122 14 -406 -7 -557 -24 -174
-94 -409 -174 -584 -17 -38 -30 -70 -28 -72 3 -3 28 -8 142 -24 44 -7 89 -14
100 -16 10 -2 37 -6 60 -9 67 -10 99 -15 127 -21 15 -3 39 -7 55 -9 15 -2 42
-6 58 -9 17 -3 75 -12 130 -21 55 -9 111 -18 125 -20 22 -3 298 -48 375 -60
17 -3 41 -7 55 -10 14 -3 48 -7 75 -11 28 -3 59 -8 70 -10 23 -5 50 -9 115
-19 25 -4 54 -9 65 -11 11 -3 34 -6 50 -8 47 -7 189 -30 255 -41 19 -4 50 -8
69 -11 19 -2 48 -7 65 -10 17 -3 42 -7 56 -9 14 -2 66 -11 115 -19 50 -8 108
-17 130 -21 22 -3 47 -7 55 -10 8 -2 38 -6 65 -10 28 -3 102 -15 165 -25 63
-11 135 -22 159 -25 23 -3 46 -7 50 -9 3 -2 29 -6 56 -10 28 -3 60 -8 71 -10
12 -2 39 -7 60 -10 22 -3 50 -8 64 -11 14 -2 43 -7 65 -10 22 -3 65 -10 95
-15 87 -15 119 -20 345 -55 21 -3 144 -23 185 -30 14 -2 41 -7 60 -10 19 -3
46 -7 60 -10 14 -2 43 -7 65 -10 23 -3 52 -7 65 -10 13 -3 42 -7 65 -10 22 -4
119 -19 215 -35 96 -16 193 -32 215 -34 22 -3 49 -7 60 -10 11 -2 45 -7 75
-12 30 -4 57 -8 60 -9 3 0 27 -4 53 -9 27 -4 57 -9 67 -11 10 -2 67 -11 126
-20 60 -10 116 -18 124 -20 15 -3 81 -13 130 -20 33 -5 82 -13 150 -25 30 -5
69 -11 85 -14 17 -2 73 -12 125 -20 52 -9 113 -18 135 -22 22 -3 78 -12 125
-20 47 -8 108 -17 135 -20 28 -4 53 -8 56 -10 3 -1 28 -6 55 -9 27 -4 67 -11
88 -15 40 -9 60 -5 52 9 -19 30 -28 439 -12 546 4 28 9 61 11 75 29 188 86
381 164 555 22 49 39 90 38 92 -3 2 -442 74 -542 88 -22 3 -49 8 -61 10 -12 3
-39 7 -60 10 -21 4 -79 13 -129 21 -49 8 -103 17 -120 20 -16 2 -55 9 -85 14
-30 5 -73 12 -95 15 -22 3 -121 19 -220 35 -161 26 -231 37 -345 55 -19 3 -48
7 -65 9 -16 3 -97 16 -180 30 -82 13 -163 27 -180 29 -16 3 -61 11 -100 17
-38 7 -81 13 -95 15 -21 2 -71 10 -130 20 -8 1 -49 8 -90 15 -41 6 -86 13
-100 16 -104 17 -161 26 -195 30 -22 3 -47 7 -55 9 -8 2 -37 7 -65 11 -27 3
-52 8 -55 9 -3 2 -33 7 -65 10 -33 4 -62 9 -65 10 -3 2 -26 6 -50 10 -63 9
-82 12 -195 30 -55 9 -111 18 -125 20 -14 3 -81 14 -150 25 -69 11 -170 27
-225 35 -55 8 -111 18 -125 21 -14 3 -43 7 -65 10 -21 2 -46 6 -55 9 -8 2 -35
7 -60 10 -50 7 -64 9 -165 26 -38 6 -83 13 -100 15 -16 2 -55 8 -85 14 -30 5
-71 12 -90 15 -19 3 -46 8 -60 10 -14 2 -72 11 -129 20 -57 8 -106 17 -110 19
-3 2 -29 7 -57 10 -29 3 -62 7 -75 10 -13 3 -42 8 -64 11 -22 3 -78 12 -125
20 -82 13 -116 19 -197 30 -21 3 -60 10 -88 15 -27 5 -68 12 -90 15 -34 4 -84
12 -250 40 -11 1 -36 6 -55 9 -19 3 -48 8 -65 11 -16 3 -50 8 -75 11 -25 3
-63 9 -85 14 -48 11 -50 11 -57 5z"/>
<path d="M13629 3916 c-2 -2 -33 -7 -69 -10 -224 -22 -472 -98 -688 -212 -243
-128 -473 -319 -630 -524 -23 -30 -47 -60 -52 -67 -5 -6 -29 -42 -54 -80 -137
-213 -245 -487 -282 -717 -3 -21 -8 -48 -10 -60 -30 -150 -21 -494 17 -666 5
-25 11 -54 14 -65 19 -91 82 -280 113 -340 9 -16 17 -32 17 -35 4 -26 117
-224 174 -305 215 -306 537 -561 873 -692 95 -37 268 -90 323 -98 16 -3 41 -8
55 -10 62 -13 79 -15 150 -22 135 -13 419 -7 495 12 11 2 36 7 55 9 19 3 42 7
50 9 8 2 31 7 50 11 51 11 172 46 195 56 11 4 52 20 90 35 93 35 258 122 353
186 366 246 640 607 776 1021 20 61 44 148 50 181 2 15 7 35 10 45 2 9 8 40
11 67 4 28 11 77 15 110 9 63 6 412 -3 455 -3 14 -8 42 -11 62 -3 21 -10 57
-15 80 -6 24 -12 54 -15 68 -2 14 -12 49 -21 79 -9 30 -18 62 -20 70 -5 25
-37 105 -47 116 -4 5 -8 15 -8 22 0 14 -77 175 -116 243 -39 66 -135 202 -157
223 -11 9 -17 17 -13 17 21 0 -204 225 -315 315 -47 38 -241 164 -262 171 -12
4 -24 9 -27 13 -18 22 -210 101 -350 145 -103 32 -211 55 -325 71 -49 7 -391
16 -396 11z"/>
</g>
</svg>
